lab2.sim/sim_1/behav/xsim/simulate.log
Time resolution is 1 ps
t=0  clk=0  btn=0  light_state=0
t=5000  clk=1  btn=0  light_state=0
t=10000  clk=0  btn=0  light_state=0
t=15000  clk=1  btn=1  light_state=1
t=20000  clk=0  btn=1  light_state=1
t=25000  clk=1  btn=1  light_state=1
t=30000  clk=0  btn=1  light_state=1
t=35000  clk=1  btn=1  light_state=2
t=40000  clk=0  btn=1  light_state=2
t=45000  clk=1  btn=1  light_state=2
t=50000  clk=0  btn=1  light_state=2
t=55000  clk=1  btn=1  light_state=3
t=60000  clk=0  btn=1  light_state=3
t=65000  clk=1  btn=1  light_state=3
t=70000  clk=0  btn=1  light_state=3
t=75000  clk=1  btn=1  light_state=4
t=80000  clk=0  btn=1  light_state=4
t=85000  clk=1  btn=1  light_state=4
t=90000  clk=0  btn=1  light_state=4
t=95000  clk=1  btn=1  light_state=5
t=100000  clk=0  btn=1  light_state=5
t=105000  clk=1  btn=1  light_state=5
t=110000  clk=0  btn=1  light_state=5
t=115000  clk=1  btn=1  light_state=6
t=120000  clk=0  btn=1  light_state=6
t=125000  clk=1  btn=1  light_state=6
t=130000  clk=0  btn=1  light_state=6
t=135000  clk=1  btn=1  light_state=7
t=140000  clk=0  btn=1  light_state=7
t=145000  clk=1  btn=1  light_state=7
t=150000  clk=0  btn=1  light_state=7
t=155000  clk=1  btn=1  light_state=1
t=160000  clk=0  btn=1  light_state=1
t=165000  clk=1  btn=1  light_state=1
t=170000  clk=0  btn=1  light_state=1
t=175000  clk=1  btn=1  light_state=2
t=180000  clk=0  btn=1  light_state=2
t=185000  clk=1  btn=1  light_state=2
t=190000  clk=0  btn=1  light_state=2
t=195000  clk=1  btn=1  light_state=3
t=200000  clk=0  btn=1  light_state=3
t=205000  clk=1  btn=1  light_state=3
t=210000  clk=0  btn=1  light_state=3
t=215000  clk=1  btn=1  light_state=4
t=220000  clk=0  btn=1  light_state=4
t=225000  clk=1  btn=1  light_state=4
t=230000  clk=0  btn=1  light_state=4
t=235000  clk=1  btn=1  light_state=5
t=240000  clk=0  btn=1  light_state=5
t=245000  clk=1  btn=1  light_state=5
t=250000  clk=0  btn=1  light_state=5
t=255000  clk=1  btn=1  light_state=6
t=260000  clk=0  btn=1  light_state=6
t=265000  clk=1  btn=1  light_state=6
t=270000  clk=0  btn=1  light_state=6
t=275000  clk=1  btn=1  light_state=7
t=280000  clk=0  btn=1  light_state=7
t=285000  clk=1  btn=1  light_state=7
t=290000  clk=0  btn=1  light_state=7
t=295000  clk=1  btn=1  light_state=1
t=300000  clk=0  btn=1  light_state=1
t=305000  clk=1  btn=1  light_state=1
t=310000  clk=0  btn=1  light_state=1
t=315000  clk=1  btn=0  light_state=0
t=320000  clk=0  btn=0  light_state=0
t=325000  clk=1  btn=0  light_state=0
t=330000  clk=0  btn=0  light_state=0
t=335000  clk=1  btn=0  light_state=0
t=340000  clk=0  btn=0  light_state=0
t=345000  clk=1  btn=0  light_state=0
t=350000  clk=0  btn=0  light_state=0
t=355000  clk=1  btn=0  light_state=0
t=360000  clk=0  btn=0  light_state=0
t=365000  clk=1  btn=1  light_state=1
t=370000  clk=0  btn=1  light_state=1
t=375000  clk=1  btn=1  light_state=1
t=380000  clk=0  btn=1  light_state=1
t=385000  clk=1  btn=1  light_state=2
t=390000  clk=0  btn=1  light_state=2
t=395000  clk=1  btn=1  light_state=2
t=400000  clk=0  btn=1  light_state=2
t=405000  clk=1  btn=1  light_state=3
t=410000  clk=0  btn=1  light_state=3
t=415000  clk=1  btn=1  light_state=3
t=420000  clk=0  btn=1  light_state=3
t=425000  clk=1  btn=1  light_state=4
t=430000  clk=0  btn=1  light_state=4
t=435000  clk=1  btn=1  light_state=4
t=440000  clk=0  btn=1  light_state=4
t=445000  clk=1  btn=0  light_state=0
t=450000  clk=0  btn=0  light_state=0
t=455000  clk=1  btn=0  light_state=0
t=460000  clk=0  btn=0  light_state=0
$finish called at time : 465 ns : File "/home/ugrad/lsich/lab2/lab2.srcs/sim_1/new/light_controller_tb.sv" Line 57
